,date,city,rent,product
0,2021-01-01,Adıyaman,1,1149
1,2021-01-02,Bingöl,7,1251
2,2021-01-03,Ağrı,10,1600
3,2021-01-04,Balıkesir,16,1487
4,2021-01-05,Hakkari,2,1032
5,2021-01-06,Yalova,12,1429
6,2021-01-07,Ardahan,7,1332
7,2021-01-08,Tokat,10,1930
8,2021-01-09,Adana,15,1295
9,2021-01-10,Kilis,12,1454
10,2021-01-11,Bartın,16,1777
11,2021-01-12,Van,14,1319
12,2021-01-13,Edirne,4,1366
13,2021-01-14,İstanbul,4,1673
14,2021-01-15,Karaman,13,1852
15,2021-01-16,Giresun,12,1135
16,2021-01-17,Adıyaman,11,1687
17,2021-01-18,Diyarbakır,1,1642
18,2021-01-19,Bingöl,9,1749
19,2021-01-20,Sivas,9,1587
20,2021-01-21,Hatay,1,1897
21,2021-01-22,İçel (Mersin),12,1646
22,2021-01-23,Kütahya,6,1551
23,2021-01-24,Bayburt,1,1606
24,2021-01-25,Bilecik,16,1278
25,2021-01-26,Eskişehir,9,1439
26,2021-01-27,Van,7,1117
27,2021-01-28,Şanlıurfa,4,1332
28,2021-01-29,Bitlis,2,1928
29,2021-01-30,Rize,6,1033
30,2021-01-31,Kırıkkale,14,1196
31,2021-02-01,Yalova,5,1780
32,2021-02-02,Erzurum,9,1550
33,2021-02-03,Şanlıurfa,5,1852
34,2021-02-04,Muş,16,1242
35,2021-02-05,Giresun,6,1635
36,2021-02-06,Tunceli,5,1711
37,2021-02-07,Osmaniye,1,1620
38,2021-02-08,Adana,6,1487
39,2021-02-09,Giresun,8,1957
40,2021-02-10,Karabük,3,1443
41,2021-02-11,Şırnak,1,1055
42,2021-02-12,Niğde,11,1680
43,2021-02-13,Kırıkkale,4,1282
44,2021-02-14,Kayseri,14,1871
45,2021-02-15,Amasya,16,1592
46,2021-02-16,Bartın,15,1699
47,2021-02-17,İzmir,16,1219
48,2021-02-18,Adana,3,1813
49,2021-02-19,Aydın,9,1633
50,2021-02-20,Ardahan,3,1669
51,2021-02-21,Sakarya,12,1170
52,2021-02-22,Tunceli,8,1747
53,2021-02-23,Bilecik,1,1346
54,2021-02-24,Muş,14,1354
55,2021-02-25,Osmaniye,5,1422
56,2021-02-26,Yalova,7,1347
57,2021-02-27,Düzce,3,1708
58,2021-02-28,Giresun,5,1922
59,2021-03-01,Ardahan,8,1072
60,2021-03-02,Uşak,4,1887
61,2021-03-03,Manisa,14,1472
62,2021-03-04,Tunceli,15,1419
63,2021-03-05,İstanbul,5,1636
64,2021-03-06,Yalova,10,1085
65,2021-03-07,Şırnak,3,1523
66,2021-03-08,Şanlıurfa,7,1688
67,2021-03-09,Kars,8,1604
68,2021-03-10,Malatya,16,1531
69,2021-03-11,Giresun,2,1135
70,2021-03-12,Çorum,13,1017
71,2021-03-13,Elazığ,16,1968
72,2021-03-14,Şanlıurfa,17,1502
73,2021-03-15,Ağrı,12,1973
74,2021-03-16,Giresun,10,1954
75,2021-03-17,Ağrı,13,1784
76,2021-03-18,Iğdır,6,1812
77,2021-03-19,Hakkari,14,1888
78,2021-03-20,Diyarbakır,5,1609
79,2021-03-21,Ankara,2,1021
80,2021-03-22,Denizli,17,1301
81,2021-03-23,Çankırı,6,1989
82,2021-03-24,Adana,13,1914
83,2021-03-25,İstanbul,14,1584
84,2021-03-26,Ankara,4,1796
85,2021-03-27,Siirt,4,1477
86,2021-03-28,Uşak,5,1310
87,2021-03-29,Çanakkale,10,1427
88,2021-03-30,İzmir,3,1593
89,2021-03-31,Zonguldak,14,1389
90,2021-04-01,Bartın,11,1824
91,2021-04-02,İçel (Mersin),10,1103
92,2021-04-03,Diyarbakır,16,1635
93,2021-04-04,Van,16,1325
94,2021-04-05,Nevşehir,12,1876
95,2021-04-06,Sakarya,11,1525
96,2021-04-07,Kars,3,1683
97,2021-04-08,Aksaray,10,1836
98,2021-04-09,Gümüşhane,2,1275
99,2021-04-10,Batman,12,1745
100,2021-04-11,İçel (Mersin),3,1222
101,2021-04-12,Bolu,12,1759
102,2021-04-13,Niğde,10,1679
103,2021-04-14,Erzurum,6,1802
104,2021-04-15,Bartın,2,1839
105,2021-04-16,Kütahya,1,1783
106,2021-04-17,Gaziantep,7,1028
107,2021-04-18,Karabük,17,1570
108,2021-04-19,Konya,3,1034
109,2021-04-20,Erzincan,13,1338
110,2021-04-21,Edirne,17,1571
111,2021-04-22,Hakkari,6,1036
112,2021-04-23,Nevşehir,3,1588
113,2021-04-24,Niğde,10,1195
114,2021-04-25,Ağrı,11,1165
115,2021-04-26,Bilecik,9,1855
116,2021-04-27,Hatay,13,1479
117,2021-04-28,Sivas,1,1745
118,2021-04-29,Çorum,16,1758
119,2021-04-30,Bayburt,15,1916
120,2021-05-01,Yalova,7,1024
121,2021-05-02,Zonguldak,6,1393
122,2021-05-03,Malatya,12,1310
123,2021-05-04,Şırnak,11,1742
124,2021-05-05,Tokat,1,1695
125,2021-05-06,İstanbul,15,1529
126,2021-05-07,Ankara,9,1152
127,2021-05-08,Çorum,8,1577
128,2021-05-09,Samsun,16,1834
129,2021-05-10,Artvin,16,1492
130,2021-05-11,Karabük,2,1674
131,2021-05-12,Bayburt,17,1144
132,2021-05-13,Sinop,15,1534
133,2021-05-14,Çanakkale,6,1455
134,2021-05-15,Batman,6,1512
135,2021-05-16,Bartın,4,1151
136,2021-05-17,Yozgat,5,1441
137,2021-05-18,Mardin,4,1369
138,2021-05-19,Batman,4,1630
139,2021-05-20,Rize,6,1498
140,2021-05-21,Konya,15,1005
141,2021-05-22,Kayseri,4,1135
142,2021-05-23,Nevşehir,6,1097
143,2021-05-24,Çorum,2,1545
144,2021-05-25,Bursa,14,1537
145,2021-05-26,Muğla,10,1227
146,2021-05-27,Giresun,4,1382
147,2021-05-28,Trabzon,11,1419
148,2021-05-29,Bartın,16,1538
149,2021-05-30,Adıyaman,11,1840
150,2021-05-31,Kilis,1,1257
151,2021-06-01,Yalova,6,1406
152,2021-06-02,Şırnak,14,1877
153,2021-06-03,Aydın,4,1354
154,2021-06-04,Tekirdağ,15,1732
155,2021-06-05,Bingöl,13,1703
156,2021-06-06,Sivas,11,1954
157,2021-06-07,Yalova,6,1252
158,2021-06-08,Tekirdağ,7,1758
159,2021-06-09,Yozgat,8,1139
160,2021-06-10,İzmir,13,1340
161,2021-06-11,Afyon,10,1174
162,2021-06-12,Denizli,16,1439
163,2021-06-13,Bayburt,8,1707
164,2021-06-14,Tokat,5,1032
165,2021-06-15,Giresun,17,1277
166,2021-06-16,Bayburt,13,1243
167,2021-06-17,Çankırı,8,1299
168,2021-06-18,Yozgat,10,1301
169,2021-06-19,Tekirdağ,17,1568
170,2021-06-20,Malatya,15,1455
171,2021-06-21,Rize,7,1194
172,2021-06-22,Hatay,12,1457
173,2021-06-23,Amasya,15,1348
174,2021-06-24,Balıkesir,5,1377
175,2021-06-25,Bursa,12,1700
176,2021-06-26,Kilis,8,1094
177,2021-06-27,Manisa,10,1720
178,2021-06-28,Eskişehir,10,1373
179,2021-06-29,Hakkari,6,1215
180,2021-06-30,Kilis,14,1107
181,2021-07-01,Tekirdağ,8,1079
182,2021-07-02,Sivas,1,1394
183,2021-07-03,Yalova,3,1220
184,2021-07-04,Zonguldak,4,1544
185,2021-07-05,Kayseri,6,1361
186,2021-07-06,Van,7,1354
187,2021-07-07,Antalya,15,1570
188,2021-07-08,Giresun,5,1195
189,2021-07-09,Sivas,15,1819
190,2021-07-10,Samsun,13,1043
191,2021-07-11,Edirne,10,1555
192,2021-07-12,Kırıkkale,15,1416
193,2021-07-13,Diyarbakır,14,1598
194,2021-07-14,Kastamonu,7,1244
195,2021-07-15,İzmir,1,1446
196,2021-07-16,Bitlis,17,1292
197,2021-07-17,Hatay,10,1112
198,2021-07-18,Diyarbakır,6,1283
199,2021-07-19,Gümüşhane,13,1989
200,2021-07-20,Van,4,1568
201,2021-07-21,Trabzon,9,1411
202,2021-07-22,Bursa,12,1877
203,2021-07-23,Artvin,10,1216
204,2021-07-24,Edirne,9,1448
205,2021-07-25,Sinop,2,1775
206,2021-07-26,Osmaniye,11,1132
207,2021-07-27,Kütahya,6,1719
208,2021-07-28,İçel (Mersin),16,1570
209,2021-07-29,Konya,9,1363
210,2021-07-30,Gümüşhane,5,1914
211,2021-07-31,İstanbul,11,1154
212,2021-08-01,Muğla,10,1246
213,2021-08-02,Sivas,5,1859
214,2021-08-03,Kütahya,4,1556
215,2021-08-04,Siirt,9,1007
216,2021-08-05,Şırnak,7,1417
217,2021-08-06,Manisa,10,1224
218,2021-08-07,Adana,7,1481
219,2021-08-08,Konya,17,1227
220,2021-08-09,Aydın,17,1403
221,2021-08-10,Kırklareli,14,1958
222,2021-08-11,Aksaray,11,1979
223,2021-08-12,İzmir,9,1141
224,2021-08-13,Çorum,5,1109
225,2021-08-14,Kocaeli,17,1755
226,2021-08-15,İçel (Mersin),15,1405
227,2021-08-16,Şırnak,3,1459
228,2021-08-17,Gümüşhane,15,1559
229,2021-08-18,Gümüşhane,4,1244
230,2021-08-19,Afyon,13,1684
231,2021-08-20,Çorum,3,1793
232,2021-08-21,Niğde,12,1024
233,2021-08-22,Ağrı,8,1924
234,2021-08-23,Sinop,1,1852
235,2021-08-24,Afyon,17,1942
236,2021-08-25,Afyon,14,1825
237,2021-08-26,Ardahan,8,1854
238,2021-08-27,İzmir,9,1579
239,2021-08-28,Konya,7,1951
240,2021-08-29,Edirne,16,1911
241,2021-08-30,Kahramanmaraş,8,1549
242,2021-08-31,Aksaray,9,1480
243,2021-09-01,Kilis,8,1473
244,2021-09-02,Şırnak,4,1203
245,2021-09-03,İzmir,8,1277
246,2021-09-04,Erzurum,16,1921
247,2021-09-05,Kayseri,17,1684
248,2021-09-06,Trabzon,14,1514
249,2021-09-07,Kütahya,10,1608
250,2021-09-08,İçel (Mersin),6,1457
251,2021-09-09,Çanakkale,16,1198
252,2021-09-10,Erzurum,4,1691
253,2021-09-11,Hatay,12,1246
254,2021-09-12,Gümüşhane,6,1874
255,2021-09-13,Adıyaman,7,1965
256,2021-09-14,Amasya,2,1565
257,2021-09-15,İstanbul,15,1615
258,2021-09-16,Trabzon,11,1213
259,2021-09-17,Bitlis,7,1919
260,2021-09-18,Gaziantep,4,1598
261,2021-09-19,Kayseri,16,1484
262,2021-09-20,Kars,2,1312
263,2021-09-21,Hatay,9,1256
264,2021-09-22,Muğla,4,1961
265,2021-09-23,Ağrı,6,1448
266,2021-09-24,Şırnak,1,1353
267,2021-09-25,Ardahan,2,1228
268,2021-09-26,Samsun,17,1567
269,2021-09-27,Isparta,12,1431
270,2021-09-28,Çanakkale,11,1054
271,2021-09-29,Afyon,12,1087
272,2021-09-30,Bayburt,6,1537
273,2021-10-01,Giresun,6,1966
274,2021-10-02,Bolu,2,1943
275,2021-10-03,Niğde,13,1895
276,2021-10-04,Hakkari,6,1446
277,2021-10-05,Tokat,7,1275
278,2021-10-06,Bilecik,14,1758
279,2021-10-07,Iğdır,13,1239
280,2021-10-08,Bayburt,7,1332
281,2021-10-09,Kastamonu,13,1510
282,2021-10-10,Batman,13,1454
283,2021-10-11,Kütahya,16,1097
284,2021-10-12,Samsun,14,1660
285,2021-10-13,Nevşehir,15,1598
286,2021-10-14,Ağrı,3,1171
287,2021-10-15,Burdur,13,1607
288,2021-10-16,Bartın,3,1562
289,2021-10-17,Karaman,14,1447
290,2021-10-18,Yozgat,5,1224
291,2021-10-19,Tekirdağ,7,1068
292,2021-10-20,Batman,15,1239
293,2021-10-21,Kars,16,1247
294,2021-10-22,Karabük,4,1913
295,2021-10-23,Sivas,16,1502
296,2021-10-24,Isparta,16,1758
297,2021-10-25,Bartın,9,1335
298,2021-10-26,Karabük,13,1176
299,2021-10-27,Sinop,14,1548
300,2021-10-28,Bursa,3,1648
301,2021-10-29,Trabzon,1,1567
302,2021-10-30,Nevşehir,9,1528
303,2021-10-31,Malatya,5,1353
304,2021-11-01,Nevşehir,10,1334
305,2021-11-02,Mardin,12,1514
306,2021-11-03,Mardin,13,1054
307,2021-11-04,İstanbul,13,1396
308,2021-11-05,Nevşehir,17,1803
309,2021-11-06,Giresun,7,1247
310,2021-11-07,Van,1,1589
311,2021-11-08,Burdur,3,1198
312,2021-11-09,Denizli,17,1352
313,2021-11-10,Manisa,13,1442
314,2021-11-11,Tekirdağ,7,1196
315,2021-11-12,Antalya,3,1247
316,2021-11-13,Adıyaman,17,1193
317,2021-11-14,Batman,14,1415
318,2021-11-15,Sinop,7,1287
319,2021-11-16,Düzce,7,1572
320,2021-11-17,Aksaray,15,1378
321,2021-11-18,Mardin,3,1591
322,2021-11-19,Hatay,12,1064
323,2021-11-20,Amasya,14,1412
324,2021-11-21,Kahramanmaraş,13,1199
325,2021-11-22,Siirt,8,1464
326,2021-11-23,Kars,13,1604
327,2021-11-24,İzmir,15,1027
328,2021-11-25,Şırnak,7,1561
329,2021-11-26,Sivas,3,1416
330,2021-11-27,Erzurum,15,1310
331,2021-11-28,Kilis,10,1272
332,2021-11-29,Giresun,4,1578
333,2021-11-30,Rize,7,1123
334,2021-12-01,Denizli,11,1452
335,2021-12-02,Edirne,6,1960
336,2021-12-03,Gümüşhane,8,1663
337,2021-12-04,Bilecik,17,1428
338,2021-12-05,Balıkesir,10,1256
339,2021-12-06,Erzurum,4,1312
340,2021-12-07,Erzincan,2,1653
341,2021-12-08,Antalya,12,1548
342,2021-12-09,Zonguldak,4,1819
343,2021-12-10,Elazığ,3,1020
344,2021-12-11,Nevşehir,9,1798
345,2021-12-12,Manisa,16,1858
346,2021-12-13,Sinop,15,1717
347,2021-12-14,Muğla,15,1479
348,2021-12-15,Kırıkkale,7,1126
349,2021-12-16,İzmir,13,1161
350,2021-12-17,Aydın,8,1535
351,2021-12-18,Batman,17,1733
352,2021-12-19,Siirt,11,1132
353,2021-12-20,Adana,15,1054
354,2021-12-21,Hakkari,12,1439
355,2021-12-22,Edirne,17,1730
356,2021-12-23,Kütahya,10,1540
357,2021-12-24,Kocaeli,11,1793
358,2021-12-25,Kayseri,10,1038
359,2021-12-26,Ankara,8,1593
360,2021-12-27,Diyarbakır,1,1694
361,2021-12-28,Antalya,15,1070
362,2021-12-29,Hakkari,11,1921
363,2021-12-30,Kars,11,1582
